IS415-GAA - Take-home Exercise 2: Application of Spatial and Spatio-temporal Analysis Methods to Discover the Distribution of Dengue Fever in Tainan City, Taiwan
…
5.1.1 Computing spatial weights

We have to compute the spatial weights before we can proceed to computing the local Gi* statistics

5.1.2 Computing local Gi* statistics

Next, we will compute the local Gi* statistics

Simple feature collection with 2885 features and 24 fields
Geometry type: POLYGON
Dimension:     XY
Bounding box:  xmin: 120.0627 ymin: 22.89401 xmax: 120.2925 ymax: 23.09144
Geodetic CRS:  TWD97
# A tibble: 2,885 × 25
   gi_star     e_gi  var_gi p_value   p_sim p_folded_sim skewness kurtosis nb   
     <dbl>    <dbl>   <dbl>   <dbl>   <dbl>        <dbl>    <dbl>    <dbl> <nb> 
 1  -2.67  0.000329 8.45e-9  -2.75  0.00592         0.02     0.01   0.424  <int>
 2  -2.67  0.000315 9.20e-9  -2.50  0.0125          0.02     0.01   0.693  <int>
 3  -2.16  0.000350 2.53e-9  -2.16  0.0304          0.02     0.01   0.248  <int>
 4  -2.16  0.000350 1.76e-9  -2.60  0.00943         0.02     0.01   0.0297 <int>
 5  -2.16  0.000353 2.61e-9  -2.19  0.0282          0.04     0.02   0.411  <int>
 6  -2.16  0.000355 1.79e-9  -2.71  0.00674         0.02     0.01   0.252  <int>
 7  -2.16  0.000352 2.18e-9  -2.38  0.0174          0.02     0.01   0.477  <int>
 8  -0.485 0.000346 2.31e-9  -0.479 0.632           0.76     0.38   0.528  <int>
 9  -0.485 0.000353 2.75e-9  -0.561 0.574           0.52     0.26   0.256  <int>
10  -0.485 0.000348 2.28e-9  -0.514 0.607           0.62     0.31   0.475  <int>
# ℹ 2,875 more rows
# ℹ 16 more variables: wt <list>, VILLCODE <chr>, COUNTYNAME <chr>,
#   TOWNNAME <chr>, VILLNAME <chr>, VILLENG <chr>, COUNTYID <chr>,
#   COUNTYCODE <chr>, TOWNID <chr>, TOWNCODE <chr>, NOTE <chr>,
#   epi_week_num <dbl>, Village <chr>, Num_Cases <int>, geometry <POLYGON [°]>,
#   spatial_weights <list>
…
